{
  "version": 2,
  "cmakeMinimumRequired": {
    "major": 3,
    "minor": 14,
    "patch": 0
  },
  "configurePresets": [
    {
      "name": "cmake-pedantic",
      "hidden": true,
      "warnings": {
        "dev": true,
        "deprecated": true,
        "uninitialized": true,
        "unusedCli": true,
        "systemVars": false
      },
      "errors": {
        "dev": true,
        "deprecated": true
      }
    },
    {
      "name": "dev-mode",
      "hidden": true,
      "inherits": "cmake-pedantic",
      "cacheVariables": {
        "qtUPnP_DEVELOPER_MODE": "ON"
      }
    },
    {
      "name": "cppcheck",
      "hidden": true,
      "cacheVariables": {
        "CMAKE_CXX_CPPCHECK": "cppcheck;--inline-suppr"
      }
    },
    {
      "name": "clang-tidy",
      "hidden": true,
      "cacheVariables": {
        "CMAKE_CXX_CLANG_TIDY": "clang-tidy;--header-filter=^${sourceDir}/"
      }
    },
    {
      "name": "ci-std",
      "description": "This preset makes sure the project actually builds with at least the specified standard",
      "hidden": true,
      "cacheVariables": {
        "CMAKE_CXX_EXTENSIONS": "OFF",
        "CMAKE_CXX_STANDARD": "20",
        "CMAKE_CXX_STANDARD_REQUIRED": "ON"
      }
    },
    {
      "name": "flags-unix",
      "hidden": true,
      "cacheVariables": {
        "CMAKE_CXX_FLAGS": "-Wall -Wextra -Wpedantic -Wconversion -Wsign-conversion -Wcast-qual -Wshadow -Wformat=2 -Wundef -Werror=float-equal"
      }
    },
    {
      "name": "flags-windows",
      "description": "Note that all the flags after /W4 are required for MSVC to conform to the language standard",
      "hidden": true,
      "cacheVariables": {
        "CMAKE_CXX_FLAGS": "/utf-8 /W4 /permissive- /volatile:iso /Zc:preprocessor /EHsc /Zc:__cplusplus /Zc:externConstexpr /Zc:throwingNew"
      }
    },
    {
      "name": "ci-unix",
      "generator": "Unix Makefiles",
      "hidden": true,
      "inherits": [
        "flags-unix",
        "ci-std"
      ],
      "cacheVariables": {
        "CMAKE_BUILD_TYPE": "Release"
      }
    },
    {
      "name": "ci-win64",
      "inherits": [
        "flags-windows",
        "ci-std"
      ],
      "generator": "Visual Studio 17 2022",
      "architecture": "x64",
      "hidden": true
    },
    {
      "name": "coverage-unix",
      "binaryDir": "${sourceDir}/build/coverage",
      "inherits": "ci-unix",
      "hidden": true,
      "cacheVariables": {
        "ENABLE_COVERAGE": "ON",
        "CMAKE_BUILD_TYPE": "Coverage",
        "CMAKE_CXX_FLAGS_COVERAGE": "-Og -g --coverage -fkeep-inline-functions -fkeep-static-functions",
        "CMAKE_EXE_LINKER_FLAGS_COVERAGE": "--coverage",
        "CMAKE_SHARED_LINKER_FLAGS_COVERAGE": "--coverage"
      }
    },
    {
      "name": "ci-coverage",
      "inherits": [
        "coverage-unix",
        "dev-mode"
      ],
      "cacheVariables": {
        "COVERAGE_HTML_COMMAND": ""
      }
    },
    {
      "name": "ci-sanitize",
      "binaryDir": "${sourceDir}/build/sanitize",
      "inherits": [
        "ci-unix",
        "dev-mode"
      ],
      "cacheVariables": {
        "CMAKE_BUILD_TYPE": "Sanitize",
        "CMAKE_CXX_FLAGS_SANITIZE": "-O2 -g -fsanitize=address,undefined -fno-omit-frame-pointer -fno-common"
      }
    },
    {
      "name": "ci-build",
      "binaryDir": "${sourceDir}/build",
      "hidden": true
    },
    {
      "name": "ci-macos",
      "inherits": [
        "ci-build",
        "ci-unix",
        "dev-mode"
      ]
    },
    {
      "name": "ci-ubuntu",
      "inherits": [
        "ci-build",
        "ci-unix",
        "clang-tidy",
        "cppcheck",
        "dev-mode"
      ]
    },
    {
      "name": "ci-windows",
      "inherits": [
        "ci-build",
        "ci-win64",
        "dev-mode"
      ]
    }
  ]
}
